…
### Example

``` r
# Create a date frame and format it into a semicolon delimited string
test_str <- readr::format_delim(
  data.frame(a=runif(1000, -100, 100), b="a", c=1, d=TRUE), 
  ";")

# read the string and guess the right formatting
read_guess(test_str)
#> Delimiter: ';', decimal mark: '.', grouping mark: ',', column headers: TRUE
#> # A tibble: 1,000 × 4
#>            a     b     c     d
#>        <dbl> <chr> <dbl> <lgl>
#> 1   71.18648     a     1  TRUE
#> 2   18.36656     a     1  TRUE
#> 3  -11.74634     a     1  TRUE
#> 4  -97.23345     a     1  TRUE
#> 5  -89.95814     a     1  TRUE
#> 6  -25.24783     a     1  TRUE
#> 7  -44.13645     a     1  TRUE
#> 8  -20.31130     a     1  TRUE
#> 9  -84.77841     a     1  TRUE
#> 10  72.45058     a     1  TRUE
#> # ... with 990 more rows
```
